{
  "//": {
    "metadata": {
      "version": "0.4.0",
      "stackName": "baseline"
    }
  },
  "terraform": {
    "required_providers": {
      "google": {
        "version": "~> 3.0",
        "source": "google"
      }
    }
  },
  "provider": {
    "google": [
      {
        "project": "bishal-playground-313602",
        "zone": "us-central1-c"
      }
    ]
  }
}